<?xml version="1.0" encoding="iso-8859-1"?>
<!-- Generator: Adobe Illustrator 19.0.0, SVG Export Plug-In . SVG Version: 6.00 Build 0)  -->
<svg xmlns="http://www.w3.org/2000/svg" xmlns:xlink="http://www.w3.org/1999/xlink" version="1.1" id="Layer_1" x="0px" y="0px" viewBox="0 0 512 512" style="enable-background:new 0 0 512 512;" xml:space="preserve" width="512px" height="512px">
<g>
	<g>
		<g>
			<path d="M421.004,246.764v9.252c0,44.078-17.172,85.507-48.361,116.657l-6.546,6.543l64.374,64.389l6.549-6.546     c48.343-48.353,74.967-112.65,74.967-181.043v-9.252H421.004z M430.345,417.303l-38.234-38.241     c28.57-31.498,45.074-71.317,47.173-113.797h54.021C491.145,322.171,469.042,375.542,430.345,417.303z" fill="#FFFFFF"/>
			<path d="M192.884,103.578c20.076-8.323,41.288-12.547,63.06-12.562l9.242-0.008V0h-9.249c-33.961,0-66.898,6.582-97.899,19.561     l-8.497,3.558l34.79,84.004L192.884,103.578z M246.685,18.68v54.062c-17.892,0.904-35.4,4.393-52.252,10.409l-20.677-49.917     C197.103,24.522,221.556,19.64,246.685,18.68z" fill="#FFFFFF"/>
			<path d="M392.877,39.613c-5.391-3.402-10.916-6.607-16.563-9.61l-67.948,67.948v1.626c5.99,2.012,11.83,4.372,17.508,7.037     L392.877,39.613z" fill="#FFFFFF"/>
			<path d="M344.349,15.703l-35.983,35.981v26.168l54.502-54.508C356.822,20.57,350.644,18.012,344.349,15.703z" fill="#FFFFFF"/>
			<path d="M378.899,146.122l64.558-64.556c-4.198-4.521-8.558-8.888-13.082-13.087l-64.568,64.563     C370.41,137.155,374.788,141.524,378.899,146.122z" fill="#FFFFFF"/>
			<path d="M412.458,203.581h1.528l67.948-67.945c-3.005-5.65-6.211-11.177-9.615-16.561l-66.936,66.939     C408.065,191.701,410.436,197.565,412.458,203.581z" fill="#FFFFFF"/>
			<path d="M506.525,203.581c-1.477-7.076-3.274-14.024-5.307-20.861l-20.861,20.861H506.525z" fill="#FFFFFF"/>
			<path d="M354.717,124.035l64.937-64.937c-4.78-3.971-9.702-7.77-14.771-11.392l-65.884,65.884     C344.444,116.779,349.69,120.264,354.717,124.035z" fill="#FFFFFF"/>
			<path d="M460.256,203.581l35.973-35.976c-2.304-6.305-4.867-12.48-7.639-18.532l-54.502,54.508H460.256z" fill="#FFFFFF"/>
			<path d="M308.366,5.414v26.168l20.864-20.864C322.387,8.684,315.439,6.886,308.366,5.414z" fill="#FFFFFF"/>
			<path d="M398.396,172.905l65.833-65.841c-3.622-5.069-7.419-9.997-11.387-14.774l-64.911,64.909     C391.707,162.222,395.199,167.465,398.396,172.905z" fill="#FFFFFF"/>
			<path d="M255.937,493.494c-130.913,0-237.419-106.516-237.419-237.445c0-74.427,35.372-145.38,94.623-189.786l-11.1-14.812     C38.155,99.341,0.014,175.823,0.014,256.049C0.014,397.181,114.82,512,255.937,512c45.993,0,91.003-12.227,130.161-35.366     l-9.413-15.936C340.379,482.153,298.625,493.494,255.937,493.494z" fill="#FFFFFF"/>
			<path d="M135.382,368.479c-4.05-4.334-7.9-8.929-11.459-13.673l-14.802,11.108c3.955,5.268,8.236,10.381,12.726,15.194     L135.382,368.479z" fill="#FFFFFF"/>
			<path d="M283.885,437.417c6.546-0.991,13.084-2.353,19.438-4.052l-4.769-17.876c-5.704,1.521-11.569,2.744-17.439,3.633     L283.885,437.417z" fill="#FFFFFF"/>
			<path d="M136.127,394.849c4.997,4.314,10.268,8.399,15.67,12.14l10.529-15.222c-4.859-3.361-9.603-7.035-14.095-10.918     L136.127,394.849z" fill="#FFFFFF"/>
			<path d="M224.651,436.823l3.149-18.23c-5.832-1.009-11.674-2.347-17.364-3.983l-5.117,17.782     C211.657,434.212,218.162,435.702,224.651,436.823z" fill="#FFFFFF"/>
			<path d="M125.139,155.507l-14.661-11.29c-4.029,5.228-7.805,10.732-11.233,16.353l15.805,9.631     C118.127,165.148,121.522,160.21,125.139,155.507z" fill="#FFFFFF"/>
			<path d="M73.676,235.049l18.383,2.112c0.681-5.896,1.684-11.807,2.985-17.58l-18.048-4.081     C75.542,221.926,74.426,228.498,73.676,235.049z" fill="#FFFFFF"/>
			<path d="M72.475,255.992c0,6.213,0.32,12.485,0.94,18.644l18.419-1.866c-0.563-5.542-0.852-11.185-0.852-16.829l0.003-0.988     l-18.506-0.105L72.475,255.992z" fill="#FFFFFF"/>
			<path d="M264.157,439.327l-0.801-18.488c-5.906,0.261-11.93,0.207-17.853-0.169l-1.157,18.47     c3.855,0.246,7.772,0.366,11.638,0.366C258.723,439.506,261.444,439.444,264.157,439.327z" fill="#FFFFFF"/>
			<path d="M82.41,196.421l17.5,6.008c1.925-5.599,4.178-11.162,6.694-16.522l-16.75-7.867     C87.051,184.008,84.545,190.193,82.41,196.421z" fill="#FFFFFF"/>
			<path d="M99.235,307.594c-1.853-5.64-3.42-11.43-4.649-17.213l-18.104,3.855c1.375,6.431,3.116,12.879,5.181,19.146     L99.235,307.594z" fill="#FFFFFF"/>
			<path d="M168.677,417.377c5.788,3.139,11.812,6.003,17.905,8.502l7.027-17.116c-5.478-2.25-10.895-4.826-16.105-7.652     L168.677,417.377z" fill="#FFFFFF"/>
			<path d="M114.003,339.988c-3.031-5.102-5.811-10.419-8.264-15.803l-16.84,7.67c2.732,5.993,5.821,11.904,9.188,17.577     L114.003,339.988z" fill="#FFFFFF"/>
			
				<rect x="127.249" y="119.641" transform="matrix(0.7216 0.6923 -0.6923 0.7216 127.234 -58.6163)" width="18.501" height="18.504" fill="#FFFFFF"/>
			
				<rect x="318.123" y="405.703" transform="matrix(0.3883 0.9215 -0.9215 0.3883 582.6425 -47.8622)" width="18.503" height="18.503" fill="#FFFFFF"/>
			
				<rect x="165.778" y="246.845" transform="matrix(0.7071 -0.7071 0.7071 0.7071 -106.1323 255.9679)" width="180.273" height="18.503" fill="#FFFFFF"/>
			<path d="M328.872,295.813c0-18.348-14.932-33.275-33.285-33.275c-18.345,0-33.275,14.927-33.275,33.275     c0,18.363,14.93,33.3,33.275,33.3C313.939,329.114,328.872,314.176,328.872,295.813z M295.587,310.607     c-8.143,0-14.771-6.636-14.771-14.794c0-8.143,6.628-14.771,14.771-14.771c8.151,0,14.779,6.628,14.779,14.771     C310.365,303.969,303.74,310.607,295.587,310.607z" fill="#FFFFFF"/>
			<path d="M216.178,249.695c18.353,0,33.285-14.935,33.283-33.29c0-18.35-14.93-33.283-33.283-33.283     c-18.355,0-33.29,14.93-33.29,33.283C182.888,234.76,197.823,249.695,216.178,249.695z M216.178,201.626     c8.146,0,14.779,6.63,14.779,14.779c0,8.156-6.633,14.787-14.779,14.787c-8.154,0-14.787-6.63-14.787-14.787     C201.391,208.256,208.024,201.626,216.178,201.626z" fill="#FFFFFF"/>
		</g>
	</g>
</g>
<g>
</g>
<g>
</g>
<g>
</g>
<g>
</g>
<g>
</g>
<g>
</g>
<g>
</g>
<g>
</g>
<g>
</g>
<g>
</g>
<g>
</g>
<g>
</g>
<g>
</g>
<g>
</g>
<g>
</g>
</svg>
