<?xml version="1.0" encoding="iso-8859-1"?>
<!-- Generator: Adobe Illustrator 19.0.0, SVG Export Plug-In . SVG Version: 6.00 Build 0)  -->
<svg xmlns="http://www.w3.org/2000/svg" xmlns:xlink="http://www.w3.org/1999/xlink" version="1.1" id="Layer_1" x="0px" y="0px" viewBox="0 0 512 512" style="enable-background:new 0 0 512 512;" xml:space="preserve" width="512px" height="512px">
<g>
	<g>
		<g>
			<path d="M410.724,294.244c-55.844,0-101.276,45.435-101.276,101.276c0,55.846,45.435,101.276,101.276,101.276     C466.568,496.796,512,451.364,512,395.52C512,339.679,466.568,294.244,410.724,294.244z M410.724,481.882     c-47.621,0-86.362-38.738-86.362-86.362c0-47.619,38.738-86.362,86.362-86.362c47.624,0,86.364,38.74,86.362,86.362     C497.085,443.141,458.345,481.882,410.724,481.882z" fill="#738a94"/>
			<polygon points="377.441,363.538 345.452,395.52 377.441,427.512 387.986,416.968 366.541,395.52 387.986,374.08    " fill="#738a94"/>
			<polygon points="444.006,363.538 433.462,374.08 454.902,395.52 433.459,416.968 444.009,427.512 475.999,395.52    " fill="#738a94"/>
			
				<rect x="403.289" y="350.831" transform="matrix(-0.962 -0.2729 0.2729 -0.962 697.9615 888.2122)" width="14.918" height="89.477" fill="#738a94"/>
			<rect x="201.19" y="184.212" width="44.68" height="14.912" fill="#738a94"/>
			<rect x="245.862" y="241.024" width="48.046" height="14.915" fill="#738a94"/>
			<rect x="245.862" y="269.44" width="48.046" height="14.912" fill="#738a94"/>
			<rect x="245.862" y="354.662" width="48.046" height="14.912" fill="#738a94"/>
			<rect x="245.862" y="383.078" width="48.046" height="14.912" fill="#738a94"/>
			<rect x="201.19" y="212.608" width="92.723" height="14.912" fill="#738a94"/>
			<rect x="201.19" y="297.856" width="44.68" height="14.915" fill="#738a94"/>
			<rect x="201.19" y="326.246" width="92.723" height="14.912" fill="#738a94"/>
			<rect x="312.704" y="241.024" width="48.056" height="14.915" fill="#738a94"/>
			<rect x="312.704" y="269.44" width="92.749" height="14.912" fill="#738a94"/>
			<rect x="312.704" y="212.608" width="48.056" height="14.912" fill="#738a94"/>
			<rect x="201.19" y="118.477" width="14.917" height="14.912" fill="#738a94"/>
			<rect x="231.014" y="118.477" width="14.915" height="14.912" fill="#738a94"/>
			<rect x="260.838" y="118.477" width="14.917" height="14.912" fill="#738a94"/>
			<path d="M169.923,158.249h266.806v126.464h14.912V158.249v-14.912v-49.71h-296.63v49.71v14.912v280.607h138.911v-14.912H169.923     V158.249z M169.923,108.539h266.806v34.798H169.923V108.539z" fill="#738a94"/>
			<path d="M81.38,421.722c-16.179,0-29.345,13.166-29.345,29.345c0,16.184,13.164,29.353,29.345,29.353     c16.179,0,29.345-13.166,29.345-29.353C110.725,434.888,97.559,421.722,81.38,421.722z M81.38,465.51     c-7.956,0-14.433-6.479-14.433-14.441c0-7.959,6.477-14.433,14.433-14.433s14.433,6.474,14.433,14.433     C95.813,459.034,89.336,465.51,81.38,465.51z" fill="#738a94"/>
			<rect x="120.781" y="421.734" width="14.912" height="58.698" fill="#738a94"/>
			<path d="M389.069,73.9c16.184,0,29.348-13.164,29.348-29.345s-13.166-29.35-29.348-29.35c-16.179,0-29.345,13.171-29.345,29.35     S372.89,73.9,389.069,73.9z M389.069,30.116c7.956,0,14.436,6.477,14.436,14.438s-6.482,14.433-14.436,14.433     c-7.962,0-14.433-6.472-14.433-14.433S381.11,30.116,389.069,30.116z" fill="#738a94"/>
			<rect x="334.771" y="15.204" width="14.912" height="58.696" fill="#738a94"/>
			<rect x="309.811" y="15.204" width="14.912" height="58.696" fill="#738a94"/>
			<path d="M123.855,325.919c4.362-4.362,6.766-10.163,6.766-16.328v-62.543c0-6.17-2.404-11.971-6.766-16.335     c-4.362-4.36-10.163-6.758-16.328-6.758h-7.457v14.912h7.457c2.184,0,4.239,0.85,5.783,2.391     c1.546,1.549,2.399,3.604,2.399,5.791v62.543c0,2.186-0.852,4.237-2.401,5.783c-1.544,1.549-3.594,2.399-5.781,2.399h-7.457     v14.912h7.457C113.7,332.685,119.498,330.284,123.855,325.919z" fill="#738a94"/>
			<path d="M17.311,315.382c-1.546-1.551-2.399-3.604-2.399-5.791v-62.543c0-2.186,0.852-4.245,2.388-5.783     c1.546-1.546,3.604-2.399,5.791-2.399h7.457v-14.912h-7.457c-6.162,0-11.96,2.396-16.338,6.766     C2.399,235.082,0,240.883,0,247.048v62.546c0,6.157,2.399,11.955,6.761,16.325c4.362,4.365,10.161,6.766,16.33,6.766h7.457     v-14.912h-7.457C20.905,317.773,18.852,316.923,17.311,315.382z" fill="#738a94"/>
			<rect x="29.445" y="270.874" width="14.917" height="14.912" fill="#738a94"/>
			<rect x="56.287" y="270.874" width="14.917" height="14.912" fill="#738a94"/>
			<rect x="83.131" y="270.874" width="14.92" height="14.912" fill="#738a94"/>
		</g>
	</g>
</g>
<g>
</g>
<g>
</g>
<g>
</g>
<g>
</g>
<g>
</g>
<g>
</g>
<g>
</g>
<g>
</g>
<g>
</g>
<g>
</g>
<g>
</g>
<g>
</g>
<g>
</g>
<g>
</g>
<g>
</g>
</svg>
