<?xml version="1.0" encoding="iso-8859-1"?>
<!-- Generator: Adobe Illustrator 19.0.0, SVG Export Plug-In . SVG Version: 6.00 Build 0)  -->
<svg xmlns="http://www.w3.org/2000/svg" xmlns:xlink="http://www.w3.org/1999/xlink" version="1.1" id="Layer_1" x="0px" y="0px" viewBox="0 0 512 512" style="enable-background:new 0 0 512 512;" xml:space="preserve" width="512px" height="512px">
<g>
	<g>
		<g>
			<path d="M512,254.314h-17.129c0,14.16-9.596,26.114-22.626,29.723c-6.244-91.555-100.397-164.497-215.246-164.497     c-20.513,0-40.773,2.324-60.308,6.915c-19.658-18.701-45.199-28.938-72.469-28.938h-8.566v64.658     c-12.987,9.193-25.49,20.677-38.116,34.977c-16.558,18.773-41.695,29.54-68.974,29.54H0v65.201l0.589,1.513     C24.852,355.45,70.7,406.273,130.012,437.034v54.408h66.033l18.706-26.734c6.397,0.965,13.089,1.733,19.963,2.276l1.126,0.079     c2.778,0.225,5.583,0.387,8.381,0.522c1.239,0.059,2.483,0.102,3.922,0.156l1.183,0.046c0.699,0.028,1.398,0.059,2.04,0.067     c1.876,0.036,3.75,0.064,5.632,0.064l8.566-0.015v-0.141c9.672-0.312,19.374-1.16,28.992-2.527l3.919,26.207h65.774     l30.666-63.777c46.907-31.552,74.749-77.059,77.435-126.115C494.848,297.592,512,277.922,512,254.314z M383.511,414.667     l-1.984,1.308l-28.052,58.335h-40.241l-4.321-28.854l-8.653,1.526c-14.298,2.514-28.856,3.784-43.277,3.784l-2.107,0.008     c-1.065-0.013-2.135-0.033-3.22-0.056c-0.533-0.008-1.068-0.031-1.6-0.054l-1.513-0.059c-1.162-0.038-2.34-0.084-3.523-0.143     c-2.614-0.115-5.228-0.274-7.836-0.481l-1.134-0.082c-8.302-0.653-16.3-1.649-23.775-2.949l-5.363-0.929l-19.791,28.291h-39.982     v-47.857l-4.769-2.358C85.066,395.754,40.64,347.688,17.129,288.654v-45.135c28.874-2.076,55.222-14.584,73.252-35.031     c12.864-14.572,25.487-25.917,38.6-34.691l3.804-2.542v-56.202c20.956,2.002,40.271,11.338,55.089,26.795l3.461,3.607     l4.841-1.239c19.61-5.007,40.069-7.547,60.82-7.547c109.432,0,198.456,70.454,198.456,157.053     C455.452,340.571,429.233,384.651,383.511,414.667z" fill="#FFFFFF"/>
			<path d="M129.848,246.496c-6.195,0-11.231-5.043-11.231-11.241h-17.129c0,15.644,12.721,28.37,28.36,28.37     s28.36-12.726,28.36-28.37h-17.129C141.079,241.453,136.044,246.496,129.848,246.496z" fill="#FFFFFF"/>
			<path d="M249.997,259.101h14.405c3.474,0,6.748,1.357,9.201,3.804c2.455,2.46,3.807,5.747,3.807,9.242h17.129     c0-8.067-3.128-15.647-8.824-21.356c-5.38-5.368-12.424-8.457-19.958-8.789v-13.601h-17.129v13.601     c-7.538,0.335-14.584,3.425-19.968,8.804c-5.683,5.699-8.814,13.281-8.814,21.34c0,8.095,3.141,15.665,8.814,21.292     c5.701,5.709,13.279,8.855,21.338,8.855h14.405c3.471,0,6.74,1.359,9.226,3.837c2.44,2.422,3.781,5.681,3.781,9.167     c0,3.51-1.354,6.797-3.781,9.226c-2.486,2.47-5.76,3.83-9.226,3.83h-14.405c-3.477,0-6.756-1.359-9.213-3.799     c-2.455-2.468-3.809-5.755-3.809-9.254h-17.129c0,8.074,3.131,15.652,8.837,21.376c5.387,5.354,12.425,8.44,19.945,8.776v13.594     h17.129v-13.593c7.516-0.332,14.557-3.42,19.973-8.802c5.678-5.696,8.809-13.281,8.809-21.353c0-8.082-3.136-15.652-8.822-21.302     c-5.696-5.693-13.268-8.832-21.315-8.832h-14.405c-3.476,0-6.751-1.359-9.242-3.858c-2.44-2.417-3.781-5.668-3.781-9.16     c0-3.494,1.352-6.781,3.799-9.226C243.238,260.458,246.513,259.101,249.997,259.101z" fill="#FFFFFF"/>
			<path d="M257.183,102.396c22.571,0,40.937-18.363,40.937-40.929c0-22.556-18.365-40.909-40.937-40.909     c-22.556,0-40.906,18.35-40.906,40.909C216.276,84.036,234.624,102.396,257.183,102.396z M257.183,37.684     c13.125,0,23.808,10.67,23.808,23.78c0,13.125-10.683,23.8-23.808,23.8c-13.11,0-23.777-10.678-23.777-23.8     C233.405,48.352,244.07,37.684,257.183,37.684z" fill="#FFFFFF"/>
		</g>
	</g>
</g>
<g>
</g>
<g>
</g>
<g>
</g>
<g>
</g>
<g>
</g>
<g>
</g>
<g>
</g>
<g>
</g>
<g>
</g>
<g>
</g>
<g>
</g>
<g>
</g>
<g>
</g>
<g>
</g>
<g>
</g>
</svg>
