<?xml version="1.0" encoding="iso-8859-1"?>
<!-- Generator: Adobe Illustrator 19.0.0, SVG Export Plug-In . SVG Version: 6.00 Build 0)  -->
<svg xmlns="http://www.w3.org/2000/svg" xmlns:xlink="http://www.w3.org/1999/xlink" version="1.1" id="Layer_1" x="0px" y="0px" viewBox="0 0 512.002 512.002" style="enable-background:new 0 0 512.002 512.002;" xml:space="preserve" width="512px" height="512px">
<g>
	<g>
		<g>
			<path d="M236.861,113.632c-67.958,0-123.246,55.299-123.246,123.267c0,67.973,55.291,123.274,123.246,123.274     c67.981,0,123.292-55.301,123.292-123.277C360.146,168.928,304.835,113.632,236.861,113.632z M236.861,342.665     c-58.307,0-105.738-47.447-105.738-105.766c0-58.317,47.432-105.761,105.738-105.761c58.322,0,105.779,47.442,105.784,105.761     C342.646,295.218,295.191,342.665,236.861,342.665z" fill="#FFFFFF"/>
			<path d="M236.861,75.462c-89.003,0-161.413,72.42-161.413,161.436s72.407,161.444,161.413,161.452     c89.024-0.008,161.462-72.435,161.469-161.452C398.321,147.882,325.883,75.462,236.861,75.462z M236.861,380.842     c-79.35-0.008-143.905-64.581-143.905-143.946c0-79.36,64.553-143.928,143.905-143.928c79.373,0,143.954,64.568,143.959,143.928     C380.813,316.261,316.234,380.835,236.861,380.842z" fill="#FFFFFF"/>
			<path d="M228.595,196.028h16.543c4.257,0,8.328,1.692,11.366,4.662c3.049,3.069,4.728,7.122,4.728,11.41h17.51     c0-8.94-3.482-17.367-9.902-23.834c-6.306-6.172-14.541-9.613-23.229-9.734V167.41h-17.508v11.122     c-8.736,0.125-16.963,3.577-23.27,9.816c-6.308,6.333-9.784,14.764-9.795,23.749c0,8.919,3.471,17.341,9.818,23.741     c6.349,6.328,14.779,9.813,23.739,9.813h16.535c4.283,0,8.338,1.684,11.395,4.716c3.036,3.039,4.708,7.068,4.708,11.341     c0,4.275-1.687,8.333-4.654,11.343c-3.108,3.054-7.173,4.739-11.441,4.739h-16.543c-4.285,0-8.333-1.674-11.323-4.641     c-3.044-3.085-4.723-7.15-4.726-11.451l-17.508,0.023c0.013,8.919,3.482,17.339,9.833,23.782     c6.247,6.199,14.479,9.655,23.232,9.78v11.102h17.508v-11.101c8.711-0.121,16.953-3.574,23.329-9.839     c6.321-6.397,9.802-14.825,9.802-23.734c0-8.955-3.5-17.375-9.866-23.741c-6.382-6.333-14.815-9.82-23.747-9.82h-16.535     c-4.296,0-8.338-1.669-11.338-4.662c-3.039-3.069-4.71-7.112-4.71-11.377c0.005-4.324,1.672-8.374,4.646-11.364     C220.27,197.702,224.32,196.028,228.595,196.028z" fill="#FFFFFF"/>
			<rect x="228.129" y="0.012" width="17.508" height="40.722" fill="#FFFFFF"/>
			
				<rect x="133.647" y="28.103" transform="matrix(0.3826 0.9239 -0.9239 0.3826 129.1354 -119.5342)" width="40.721" height="17.508" fill="#FFFFFF"/>
			
				<rect x="63.415" y="75.052" transform="matrix(0.7072 0.7071 -0.7071 0.7072 83.7886 -34.6935)" width="40.724" height="17.506" fill="#FFFFFF"/>
			
				<rect x="16.485" y="145.296" transform="matrix(-0.9238 -0.3828 0.3828 -0.9238 11.9188 310.4741)" width="40.722" height="17.512" fill="#FFFFFF"/>
			<rect x="0" y="228.159" width="40.722" height="17.508" fill="#FFFFFF"/>
			
				<rect x="28.073" y="299.406" transform="matrix(-0.3827 -0.9239 0.9239 -0.3827 -244.5 476.1599)" width="17.511" height="40.715" fill="#FFFFFF"/>
			
				<rect x="75.015" y="369.645" transform="matrix(-0.7071 -0.7071 0.7071 -0.7071 -132.7724 725.0067)" width="17.505" height="40.714" fill="#FFFFFF"/>
			
				<rect x="145.243" y="416.597" transform="matrix(-0.9238 -0.3828 0.3828 -0.9238 128.9935 899.5782)" width="17.51" height="40.716" fill="#FFFFFF"/>
			<rect x="228.129" y="433.061" width="17.508" height="40.722" fill="#FFFFFF"/>
			
				<rect x="299.391" y="428.19" transform="matrix(-0.3824 -0.924 0.924 -0.3824 38.2839 899.4761)" width="40.714" height="17.508" fill="#FFFFFF"/>
			
				<rect x="416.601" y="310.995" transform="matrix(-0.9239 -0.3826 0.3826 -0.9239 718.3302 782.3535)" width="40.714" height="17.51" fill="#FFFFFF"/>
			<rect x="433.057" y="228.133" width="40.707" height="17.508" fill="#FFFFFF"/>
			
				<rect x="428.196" y="133.662" transform="matrix(0.3828 0.9238 -0.9238 0.3828 411.9646 -308.6104)" width="17.51" height="40.705" fill="#FFFFFF"/>
			
				<rect x="381.256" y="63.436" transform="matrix(0.7071 0.7071 -0.7071 0.7071 173.4837 -251.235)" width="17.505" height="40.719" fill="#FFFFFF"/>
			
				<rect x="310.996" y="16.509" transform="matrix(0.924 0.3824 -0.3824 0.924 38.3977 -119.4696)" width="17.508" height="40.707" fill="#FFFFFF"/>
			<path d="M512.002,499.606l-42.672-42.648l37.716-37.72l-137.751-49.943l49.864,137.841l37.79-37.795l42.675,42.651     L512.002,499.606z M398.482,398.496l76.726,27.822l-48.95,48.96L398.482,398.496z" fill="#FFFFFF"/>
		</g>
	</g>
</g>
<g>
</g>
<g>
</g>
<g>
</g>
<g>
</g>
<g>
</g>
<g>
</g>
<g>
</g>
<g>
</g>
<g>
</g>
<g>
</g>
<g>
</g>
<g>
</g>
<g>
</g>
<g>
</g>
<g>
</g>
</svg>
