<?xml version="1.0" encoding="iso-8859-1"?>
<!-- Generator: Adobe Illustrator 18.1.1, SVG Export Plug-In . SVG Version: 6.00 Build 0)  -->
<svg xmlns="http://www.w3.org/2000/svg" xmlns:xlink="http://www.w3.org/1999/xlink" version="1.1" id="Capa_1" x="0px" y="0px" viewBox="0 0 29.756 29.756" style="enable-background:new 0 0 29.756 29.756;" xml:space="preserve" width="512px" height="512px">
<g>
	<path d="M29.049,5.009L28.19,4.151c-0.943-0.945-2.488-0.945-3.434,0L10.172,18.737l-5.175-5.173   c-0.943-0.944-2.489-0.944-3.432,0.001l-0.858,0.857c-0.943,0.944-0.943,2.489,0,3.433l7.744,7.752   c0.944,0.943,2.489,0.943,3.433,0L29.049,8.442C29.991,7.498,29.991,5.953,29.049,5.009z" fill="#2c93f4"/>
</g>
<g>
</g>
<g>
</g>
<g>
</g>
<g>
</g>
<g>
</g>
<g>
</g>
<g>
</g>
<g>
</g>
<g>
</g>
<g>
</g>
<g>
</g>
<g>
</g>
<g>
</g>
<g>
</g>
<g>
</g>
</svg>
