<?xml version="1.0" encoding="utf-8"?>
<!-- Generator: Adobe Illustrator 21.0.0, SVG Export Plug-In . SVG Version: 6.00 Build 0)  -->
<svg version="1.1" id="Layer_1" xmlns="http://www.w3.org/2000/svg" xmlns:xlink="http://www.w3.org/1999/xlink" x="0px" y="0px"
	 viewBox="0 0 512 512" style="enable-background:new 0 0 512 512;" xml:space="preserve">
<style type="text/css">
	.st0{fill:url(#SVGID_1_);}
	.st1{fill:url(#SVGID_2_);}
	.st2{fill:url(#SVGID_3_);}
	.st3{fill:url(#SVGID_4_);}
	.st4{fill:url(#SVGID_5_);}
	.st5{fill:url(#SVGID_6_);}
	.st6{fill:url(#SVGID_7_);}
	.st7{fill:url(#SVGID_8_);}
	.st8{fill:url(#SVGID_9_);}
	.st9{fill:url(#SVGID_10_);}
	.st10{fill:url(#SVGID_11_);}
	.st11{fill:url(#SVGID_12_);}
	.st12{fill:url(#SVGID_13_);}
	.st13{fill:url(#SVGID_14_);}
</style>
<g>
	<g>
		<g>
			<linearGradient id="SVGID_1_" gradientUnits="userSpaceOnUse" x1="37.051" y1="127.9981" x2="334.957" y2="127.9981">
				<stop  offset="0" style="stop-color:#2B5876"/>
				<stop  offset="1" style="stop-color:#4E4376"/>
			</linearGradient>
			<path class="st0" d="M256,53.3h8.1V22.6L312,70.5l-47.8,47.8V87.7H256c-92.8,0-168.4,75.5-168.4,168.3h16.3
				c0-81.1,63.9-147.6,144-151.9v25.1c0,4.8,2.8,9,7.3,10.9c4.4,1.8,9.4,0.8,12.8-2.6l67-67l-67-67c-3.4-3.4-8.4-4.4-12.8-2.5
				c-4.4,1.8-7.2,6.1-7.2,10.8v25.5C130.9,41.5,37.1,138,37.1,256h16.3C53.3,144.2,144.2,53.3,256,53.3z"/>
			<linearGradient id="SVGID_2_" gradientUnits="userSpaceOnUse" x1="177.037" y1="383.998" x2="474.949" y2="383.998">
				<stop  offset="0" style="stop-color:#2B5876"/>
				<stop  offset="1" style="stop-color:#4E4376"/>
			</linearGradient>
			<path class="st1" d="M458.7,256c0,111.8-90.9,202.7-202.7,202.7h-8.1v30.7L200,441.5l47.8-47.8v30.7h8.1
				c92.8,0,168.3-75.5,168.3-168.4h-16.3c0,81.1-63.9,147.6-143.9,151.9v-25.1c0-4.8-2.9-9-7.2-10.8c-4.4-1.8-9.4-0.8-12.8,2.5
				l-67,67l67,67c2.3,2.2,5.2,3.4,8.3,3.4c1.5,0,3.1-0.3,4.5-0.9c4.4-1.8,7.2-6.1,7.2-10.8v-25.5c117-4.3,210.8-100.8,210.8-218.8
				L458.7,256L458.7,256z"/>
			<linearGradient id="SVGID_3_" gradientUnits="userSpaceOnUse" x1="162.939" y1="255.998" x2="349.061" y2="255.998">
				<stop  offset="0" style="stop-color:#2B5876"/>
				<stop  offset="1" style="stop-color:#4E4376"/>
			</linearGradient>
			<path class="st2" d="M256,162.9c-51.3,0-93.1,41.7-93.1,93.1c0,51.3,41.7,93.1,93.1,93.1c51.3,0,93.1-41.7,93.1-93.1
				C349.1,204.7,307.3,162.9,256,162.9z M256,332.8c-42.3,0-76.8-34.4-76.8-76.8c0-42.3,34.5-76.8,76.8-76.8s76.8,34.4,76.8,76.8
				C332.8,298.3,298.3,332.8,256,332.8z"/>
			<linearGradient id="SVGID_4_" gradientUnits="userSpaceOnUse" x1="212.153" y1="258.8705" x2="299.851" y2="258.8705">
				<stop  offset="0" style="stop-color:#2B5876"/>
				<stop  offset="1" style="stop-color:#4E4376"/>
			</linearGradient>
			<polygon class="st3" points="247.3,267.9 223.7,244.3 212.2,255.8 247.3,290.9 299.9,238.3 288.4,226.8 			"/>
			<linearGradient id="SVGID_5_" gradientUnits="userSpaceOnUse" x1="89.138" y1="359.346" x2="114.267" y2="359.346">
				<stop  offset="0" style="stop-color:#2B5876"/>
				<stop  offset="1" style="stop-color:#4E4376"/>
			</linearGradient>
			<path class="st4" d="M104.6,346.8l-15.5,9.3c3.3,5.4,6.8,10.8,10.6,15.9l14.5-10.8C110.8,356.5,107.6,351.7,104.6,346.8z"/>
			<linearGradient id="SVGID_6_" gradientUnits="userSpaceOnUse" x1="140.13" y1="410.3355" x2="165.303" y2="410.3355">
				<stop  offset="0" style="stop-color:#2B5876"/>
				<stop  offset="1" style="stop-color:#4E4376"/>
			</linearGradient>
			<path class="st5" d="M140.1,412.3c5.1,3.8,10.4,7.4,15.9,10.6l9.3-15.5c-4.9-3-9.8-6.2-14.4-9.6L140.1,412.3z"/>
			<linearGradient id="SVGID_7_" gradientUnits="userSpaceOnUse" x1="111.88" y1="387.344" x2="137.516" y2="387.344">
				<stop  offset="0" style="stop-color:#2B5876"/>
				<stop  offset="1" style="stop-color:#4E4376"/>
			</linearGradient>
			<path class="st6" d="M125.3,374.5l-13.4,12.1c4.3,4.7,8.8,9.2,13.5,13.5l12.1-13.4C133.3,382.9,129.1,378.8,125.3,374.5z"/>
			<linearGradient id="SVGID_8_" gradientUnits="userSpaceOnUse" x1="72.802" y1="327.388" x2="96.441" y2="327.388">
				<stop  offset="0" style="stop-color:#2B5876"/>
				<stop  offset="1" style="stop-color:#4E4376"/>
			</linearGradient>
			<path class="st7" d="M89.8,315.5l-17,6.1c2.1,6,4.6,11.9,7.3,17.6l16.3-7.7C94,326.3,91.7,320.9,89.8,315.5z"/>
			<linearGradient id="SVGID_9_" gradientUnits="userSpaceOnUse" x1="63.542" y1="292.66" x2="84.787" y2="292.66">
				<stop  offset="0" style="stop-color:#2B5876"/>
				<stop  offset="1" style="stop-color:#4E4376"/>
			</linearGradient>
			<path class="st8" d="M81.4,282l-17.9,2.6c0.9,6.3,2.2,12.6,3.7,18.7l17.5-4.4C83.4,293.4,82.3,287.7,81.4,282z"/>
			<linearGradient id="SVGID_10_" gradientUnits="userSpaceOnUse" x1="397.735" y1="152.646" x2="422.861" y2="152.646">
				<stop  offset="0" style="stop-color:#2B5876"/>
				<stop  offset="1" style="stop-color:#4E4376"/>
			</linearGradient>
			<path class="st9" d="M407.4,165.2l15.5-9.3c-3.3-5.4-6.8-10.8-10.6-15.9l-14.5,10.8C401.2,155.5,404.4,160.3,407.4,165.2z"/>
			<linearGradient id="SVGID_11_" gradientUnits="userSpaceOnUse" x1="427.219" y1="219.331" x2="448.467" y2="219.331">
				<stop  offset="0" style="stop-color:#2B5876"/>
				<stop  offset="1" style="stop-color:#4E4376"/>
			</linearGradient>
			<path class="st10" d="M430.6,230l17.9-2.6c-0.9-6.3-2.2-12.6-3.7-18.7l-17.5,4.4C428.6,218.6,429.7,224.3,430.6,230z"/>
			<linearGradient id="SVGID_12_" gradientUnits="userSpaceOnUse" x1="415.557" y1="184.604" x2="439.204" y2="184.604">
				<stop  offset="0" style="stop-color:#2B5876"/>
				<stop  offset="1" style="stop-color:#4E4376"/>
			</linearGradient>
			<path class="st11" d="M422.2,196.5l17-6.1c-2.1-6-4.6-11.9-7.3-17.6l-16.3,7.7C418,185.7,420.2,191,422.2,196.5z"/>
			<linearGradient id="SVGID_13_" gradientUnits="userSpaceOnUse" x1="374.485" y1="124.641" x2="400.118" y2="124.641">
				<stop  offset="0" style="stop-color:#2B5876"/>
				<stop  offset="1" style="stop-color:#4E4376"/>
			</linearGradient>
			<path class="st12" d="M386.7,137.5l13.4-12.1c-4.2-4.7-8.8-9.2-13.5-13.5l-12.1,13.4C378.8,129.1,382.9,133.2,386.7,137.5z"/>
			<linearGradient id="SVGID_14_" gradientUnits="userSpaceOnUse" x1="346.688" y1="101.6535" x2="371.858" y2="101.6535">
				<stop  offset="0" style="stop-color:#2B5876"/>
				<stop  offset="1" style="stop-color:#4E4376"/>
			</linearGradient>
			<path class="st13" d="M371.9,99.7c-5.1-3.8-10.4-7.4-15.9-10.6l-9.3,15.5c4.9,3,9.8,6.2,14.4,9.6L371.9,99.7z"/>
		</g>
	</g>
</g>
</svg>
